Screaming Circuits SMD component position file.,,,,
,,,,
"Centroid Data for pc board: ""carte_mesure_GG.brd"" as of: 16/07/2019 08:30",,,,
Measurements are in milimeters. Comma delimited,,,,
Only surface mount components included,,,,
,,,,
RefDes,Layer,LocationX,LocationY,Rotation
C1,Top,19.05,57.785,90
C2,Top,67.31,69.85,180
C3,Top,52.832,39.751,270
C4,Top,27.94,57.15,270
C5,Top,55.245,48.895,90
C6,Top,19.05,41.91,90
C7,Top,44.45,49.53,90
C8,Top,60.325,83.185,90
C9,Top,27.94,41.91,270
C10,Top,84.455,43.815,0
C11,Bottom,20.955,90.17,0
C12,Top,83.185,57.785,270
C13,Top,33.655,85.09,90
C14,Top,81.28,20.32,0
C15,Top,100.965,59.69,270
C16,Top,81.28,27.94,0
C17,Top,19.05,73.025,90
C18,Top,59.055,53.975,90
C19,Top,6.985,89.535,0
C20,Top,43.942,88.138,270
C21,Top,27.94,71.755,270
C22,Top,27.94,24.765,270
C23,Top,27.94,6.35,270
C24,Top,99.06,55.245,0
C25,Top,81.28,5.715,0
C26,Top,19.685,24.13,90
C27,Top,19.05,7.62,90
C28,Bottom,13.97,36.195,0
C29,Bottom,16.51,80.645,180
C30,Bottom,13.97,66.04,0
C31,Bottom,13.97,50.8,0
C32,Bottom,22.225,29.845,270
C33,Bottom,21.59,75.565,270
C34,Bottom,21.59,60.325,270
C35,Bottom,22.225,45.085,270
D1,Top,21.971,65.405,0
D2,Top,19.05,62.865,0
D6,Top,22.225,49.53,0
D7,Top,19.05,46.99,0
D9,Top,24.13,80.264,0
D10,Top,19.05,78.74,0
D11,Top,18.415,32.385,180
D12,Top,18.415,29.21,0
D13,Top,20.955,15.24,0
D14,Top,17.78,12.7,0
IC1,Top,52.07,57.15,180
IC2,Top,72.39,76.2,0
IC3,Top,24.13,57.785,0
IC4,Top,24.13,41.91,0
IC6,Top,24.13,73.025,0
IC7,Top,24.13,26.035,0
IC8,Top,24.13,8.255,0
IC9,Top,95.25,48.26,270
IC10,Top,73.66,8.89,180
LED1,Top,41.275,74.295,180
LED2,Top,35.56,74.295,0
LED3,Top,40.005,84.455,0
R1,Top,36.83,13.335,0
R2,Top,12.7,56.515,0
R3,Top,36.83,10.795,180
R4,Top,36.83,8.255,0
R5,Top,67.31,64.77,180
R6,Top,67.31,67.31,180
R7,Top,16.51,57.785,90
R8,Top,49.784,39.751,90
R9,Top,97.79,59.69,90
R11,Top,109.855,60.96,180
R13,Top,52.705,48.895,270
R14,Top,77.47,68.58,180
R15,Top,83.82,77.47,180
R16,Top,83.82,80.01,0
R17,Top,82.55,83.82,0
R18,Top,12.7,40.64,0
R19,Top,46.99,49.53,270
R20,Top,38.735,74.295,270
R21,Top,16.51,41.91,90
R22,Top,33.02,74.295,90
R23,Top,37.465,84.455,90
R24,Bottom,104.14,93.345,180
R25,Top,12.7,71.755,0
R26,Top,16.51,73.025,90
R27,Top,84.455,53.975,0
R28,Top,58.42,19.05,90
R29,Top,84.455,51.435,180
R30,Top,60.96,19.05,90
R31,Top,72.39,64.77,0
R32,Top,65.405,31.115,0
R33,Top,84.455,48.895,180
R34,Top,66.04,19.05,270
R35,Top,67.31,62.103,180
R36,Top,66.675,46.863,0
R37,Top,17.145,24.13,90
R38,Top,16.51,7.62,90
R39,Top,14.605,31.115,270
R40,Top,12.7,24.765,0
R41,Top,12.7,6.985,0
R42,Top,13.335,79.375,180
R43,Top,13.335,64.135,180
R44,Top,13.335,49.53,180
R46,Bottom,19.685,29.845,90
R47,Bottom,19.05,75.565,90
R48,Bottom,19.05,60.325,90
R49,Bottom,19.685,45.085,90
U1,Top,73.025,52.07,180
U2,Top,73.66,24.13,180
U3,Bottom,12.7,30.48,180
U4,Bottom,12.7,76.2,180
U5,Bottom,12.7,60.96,180
U6,Bottom,12.7,45.72,180
